…
``` r
precipitation20182019 = 
  bind_rows(precipitation_2019, precipitation_2018) %>%
  janitor::clean_names()

precipitation20182019
```

    ## # A tibble: 24 × 3
    ##    month     total year 
    ##    <chr>     <dbl> <chr>
    ##  1 January    3.1  2019 
    ##  2 February   3.64 2019 
    ##  3 March      4.47 2019 
    ##  4 April      1.46 2019 
    ##  5 May        3.58 2019 
    ##  6 June       0.42 2019 
    ##  7 July       3.85 2019 
    ##  8 August     2.39 2019 
    ##  9 September  0.16 2019 
    ## 10 October    5.45 2019 
    ## # … with 14 more rows
…
    ## ── Column specification ────────────────────────────────────────────────────────
    ## Delimiter: ","
    ## dbl  (8): prez_gop, gov_gop, sen_gop, rep_gop, prez_dem, gov_dem, sen_dem, r...
    ## date (1): mon

    ## 
    ## ℹ Use `spec()` to retrieve the full column specification for this data.
    ## ℹ Specify the column types or set `show_col_types = FALSE` to quiet this message.

``` r
pols_month
```

    ## # A tibble: 822 × 9
    ##     year month     gov_gop sen_gop rep_gop gov_dem sen_dem rep_dem president
    ##    <dbl> <chr>       <dbl>   <dbl>   <dbl>   <dbl>   <dbl>   <dbl> <chr>    
    ##  1  1947 January        23      51     253      23      45     198 dem      
    ##  2  1947 February       23      51     253      23      45     198 dem      
    ##  3  1947 March          23      51     253      23      45     198 dem      
    ##  4  1947 April          23      51     253      23      45     198 dem      
    ##  5  1947 May            23      51     253      23      45     198 dem      
    ##  6  1947 June           23      51     253      23      45     198 dem      
    ##  7  1947 July           23      51     253      23      45     198 dem      
    ##  8  1947 August         23      51     253      23      45     198 dem      
    ##  9  1947 September      23      51     253      23      45     198 dem      
    ## 10  1947 October        23      51     253      23      45     198 dem      
    ## # … with 812 more rows
…
    ## ── Column specification ────────────────────────────────────────────────────────
    ## Delimiter: ","
    ## chr (1): date
    ## dbl (1): close

    ## 
    ## ℹ Use `spec()` to retrieve the full column specification for this data.
    ## ℹ Specify the column types or set `show_col_types = FALSE` to quiet this message.

``` r
snp
```

    ## # A tibble: 787 × 3
    ##     year month    close
    ##    <dbl> <chr>    <dbl>
    ##  1  2015 July     2080.
    ##  2  2015 June     2063.
    ##  3  2015 May      2107.
    ##  4  2015 April    2086.
    ##  5  2015 March    2068.
    ##  6  2015 February 2104.
    ##  7  2015 January  1995.
    ##  8  2014 December 2059.
    ##  9  2014 November 2068.
    ## 10  2014 October  2018.
    ## # … with 777 more rows
…
    ## Rows: 68 Columns: 13

    ## ── Column specification ────────────────────────────────────────────────────────
    ## Delimiter: ","
    ## dbl (13): Year, Jan, Feb, Mar, Apr, May, Jun, Jul, Aug, Sep, Oct, Nov, Dec

    ## 
    ## ℹ Use `spec()` to retrieve the full column specification for this data.
    ## ℹ Specify the column types or set `show_col_types = FALSE` to quiet this message.

``` r
unemployment
```

    ## # A tibble: 816 × 3
    ##     year month unemployment
    ##    <dbl> <chr>        <dbl>
    ##  1  1948 Jan            3.4
    ##  2  1948 Feb            3.8
    ##  3  1948 Mar            4  
    ##  4  1948 Apr            3.9
    ##  5  1948 May            3.5
    ##  6  1948 Jun            3.6
    ##  7  1948 Jul            3.6
    ##  8  1948 Aug            3.9
    ##  9  1948 Sep            3.8
    ## 10  1948 Oct            3.7
    ## # … with 806 more rows

``` r
#merging all dataset
mergeddata_1=left_join(pols_month, snp, by = c("year", "month")) 
mergeddata_2=left_join(unemployment,mergeddata_1, by = c("year", "month"))
mergeddata_2
```

    ## # A tibble: 816 × 11
    ##     year month unemployment gov_gop sen_gop rep_gop gov_dem sen_dem rep_dem
    ##    <dbl> <chr>        <dbl>   <dbl>   <dbl>   <dbl>   <dbl>   <dbl>   <dbl>
    ##  1  1948 Jan            3.4      NA      NA      NA      NA      NA      NA
    ##  2  1948 Feb            3.8      NA      NA      NA      NA      NA      NA
    ##  3  1948 Mar            4        NA      NA      NA      NA      NA      NA
    ##  4  1948 Apr            3.9      NA      NA      NA      NA      NA      NA
    ##  5  1948 May            3.5      22      53     253      24      48     198
    ##  6  1948 Jun            3.6      NA      NA      NA      NA      NA      NA
    ##  7  1948 Jul            3.6      NA      NA      NA      NA      NA      NA
    ##  8  1948 Aug            3.9      NA      NA      NA      NA      NA      NA
    ##  9  1948 Sep            3.8      NA      NA      NA      NA      NA      NA
    ## 10  1948 Oct            3.7      NA      NA      NA      NA      NA      NA
    ## # … with 806 more rows, and 2 more variables: president <chr>, close <dbl>
…
    ## 
    ## ℹ Use `spec()` to retrieve the full column specification for this data.
    ## ℹ Specify the column types or set `show_col_types = FALSE` to quiet this message.

``` r
# removing the duplicated rows 
PopularBabyNames = PopularBabyNames[!duplicated(PopularBabyNames),]
PopularBabyNames
```

    ## # A tibble: 12,181 × 6
    ##    year_of_birth gender ethnicity                  childs_first_name count  rank
    ##            <dbl> <chr>  <fct>                      <chr>             <dbl> <dbl>
    ##  1          2016 FEMALE ASIAN AND PACIFIC ISLANDER OLIVIA              172     1
    ##  2          2016 FEMALE ASIAN AND PACIFIC ISLANDER CHLOE               112     2
    ##  3          2016 FEMALE ASIAN AND PACIFIC ISLANDER SOPHIA              104     3
    ##  4          2016 FEMALE ASIAN AND PACIFIC ISLANDER EMILY                99     4
    ##  5          2016 FEMALE ASIAN AND PACIFIC ISLANDER EMMA                 99     4
    ##  6          2016 FEMALE ASIAN AND PACIFIC ISLANDER MIA                  79     5
    ##  7          2016 FEMALE ASIAN AND PACIFIC ISLANDER CHARLOTTE            59     6
    ##  8          2016 FEMALE ASIAN AND PACIFIC ISLANDER SARAH                57     7
    ##  9          2016 FEMALE ASIAN AND PACIFIC ISLANDER ISABELLA             56     8
    ## 10          2016 FEMALE ASIAN AND PACIFIC ISLANDER HANNAH               56     8
    ## # … with 12,171 more rows
…
``` r
# showing a graph about the name and the rank in popularity of white non-hispanic make children born in 2016
malewhitenonhispanicin2016=PopularBabyNames %>% 
  filter(gender == "MALE", year_of_birth=="2016",ethnicity=="WHITE NON HISPANIC")  
malewhitenonhispanicin2016
```

    ## # A tibble: 364 × 6
    ##    year_of_birth gender ethnicity          childs_first_name count  rank
    ##            <dbl> <chr>  <fct>              <chr>             <dbl> <dbl>
    ##  1          2016 MALE   WHITE NON HISPANIC JOSEPH              261     1
    ##  2          2016 MALE   WHITE NON HISPANIC MICHAEL             260     2
    ##  3          2016 MALE   WHITE NON HISPANIC DAVID               255     3
    ##  4          2016 MALE   WHITE NON HISPANIC MOSHE               239     4
    ##  5          2016 MALE   WHITE NON HISPANIC JACOB               236     5
    ##  6          2016 MALE   WHITE NON HISPANIC JAMES               231     6
    ##  7          2016 MALE   WHITE NON HISPANIC BENJAMIN            219     7
    ##  8          2016 MALE   WHITE NON HISPANIC ALEXANDER           211     8
    ##  9          2016 MALE   WHITE NON HISPANIC DANIEL              196     9
    ## 10          2016 MALE   WHITE NON HISPANIC HENRY               196     9
    ## # … with 354 more rows
…
